waveforms/square.s.vcd
$date
2025-09-21T21:51+0000
$end
$version
0.2
$end
$comment

$end
$timescale 1ns  $end
$scope module Tile $end
 $var wire 1 7 io_regsWriteEnable $end
 $var wire 32 ; io_regsReadData $end
 $var wire 32 V io_IMEMAddress $end
 $var wire 1 m io_regsDeviceWriteEnable $end
 $var wire 32 "; io_DMEMAddress $end
 $var wire 32 "y io_DMEMWriteData $end
 $var wire 1 "~ CPU $end
 $var wire 32 #) io_regsDeviceWriteData $end
 $var wire 5 #3 io_regsDeviceWriteAddress $end
 $var wire 1 #C clock $end
 $var wire 32 #I io_currentPC $end
 $var wire 5 #P io_regsAddress $end
 $var wire 1 #g io_DMEMWriteEnable $end
 $var wire 32 #j io_memDeviceWriteAddress $end
 $var wire 32 $& io_IMEMWriteData $end
 $var wire 32 $* io_memDeviceWriteData $end
 $var wire 32 $K io_DMEMReadData $end
 $var wire 1 $R reset $end
 $var wire 1 $_ io_setup $end
 $var wire 1 $o io_memDeviceWriteEnable $end
 $var wire 32 %* io_regsWriteData $end
  $scope module CPU.EX $end
  $upscope $end
  $scope module CPU.WB $end
  $upscope $end
  $scope module CPU.MEM $end
  $upscope $end
  $scope module CPU.ID $end
  $upscope $end
  $scope module CPU.IFIDbarrier $end
  $upscope $end
  $scope module CPU.IDEXbarrier $end
  $upscope $end
  $scope module CPU.MEMWBbarrier $end
  $upscope $end
  $scope module CPU.ID.registers $end
  $upscope $end
  $scope module CPU.IF $end
  $upscope $end
  $scope module CPU.EXMEMbarrier $end
  $upscope $end
  $scope module CPU.IF.IMEM $end
  $upscope $end
  $scope module CPU.MEM.DMEM $end
  $upscope $end
  $scope module CPU.ID.Decoder $end
  $upscope $end
  $scope module CPU.EX.alu $end
  $upscope $end
  $scope module CPU $end
   $var wire 32 5 testHarness_setupSignals_IMEMsignals_address $end
   $var wire 32 > testHarness_setupSignals_IMEMsignals_instruction $end
   $var wire 1 T testHarness_regUpdates_writeEnable $end
   $var wire 1 s ID $end
   $var wire 1 "/ testHarness_memUpdates_writeEnable $end
   $var wire 1 "9 EXMEMbarrier $end
   $var wire 32 "@ testHarness_regUpdates_writeData $end
   $var wire 5 "A testHarness_regUpdates_writeAddress $end
   $var wire 5 "C testHarness_setupSignals_registerSignals_readAddress $end
   $var wire 32 "G testHarness_testReadouts_registerRead $end
   $var wire 32 "R testHarness_currentPC $end
   $var wire 1 "^ IF $end
   $var wire 32 "z testHarness_memUpdates_writeAddress $end
   $var wire 1 #" testHarness_setupSignals_DMEMsignals_setup $end
   $var wire 32 #: testHarness_testReadouts_DMEMread $end
   $var wire 32 #< testHarness_setupSignals_DMEMsignals_dataIn $end
   $var wire 1 #= testHarness_setupSignals_IMEMsignals_setup $end
   $var wire 1 #a clock $end
   $var wire 32 #e testHarness_setupSignals_DMEMsignals_dataAddress $end
   $var wire 1 #n testHarness_setupSignals_registerSignals_setup $end
   $var wire 1 #r MEM $end
   $var wire 1 $/ testHarness_setupSignals_registerSignals_writeEnable $end
   $var wire 1 $0 WB $end
   $var wire 1 $J EX $end
   $var wire 1 $Y MEMWBbarrier $end
   $var wire 1 $k IDEXbarrier $end
   $var wire 32 $l testHarness_memUpdates_writeData $end
   $var wire 32 $} testHarness_setupSignals_registerSignals_writeData $end
   $var wire 1 %( reset $end
   $var wire 1 %) IFIDbarrier $end
   $var wire 1 %, testHarness_setupSignals_DMEMsignals_writeEnable $end
    $scope module ID $end
     $var wire 1 ! testHarness_registerSetup_writeEnable $end
     $var wire 1 $ io_op2Select $end
     $var wire 32 6 immJ $end
     $var wire 4 G io_ALUop $end
     $var wire 32 J immS $end
     $var wire 32 K io_imm $end
     $var wire 1 Y io_ctrl_memRead $end
     $var wire 5 h io_wbWriteAddr $end
     $var wire 32 q testHarness_registerPeek $end
     $var wire 32 | shamt $end
     $var wire 1 "% io_op1Select $end
     $var wire 5 ") io_rd $end
     $var wire 1 ". testHarness_testUpdates_writeEnable $end
     $var wire 32 "1 io_instruction_instruction $end
     $var wire 32 ": testHarness_registerSetup_writeData $end
     $var wire 32 "? io_rs1Data $end
     $var wire 5 "B testHarness_testUpdates_writeAddress $end
     $var wire 32 "J io_pcOut $end
     $var wire 32 "S immU $end
     $var wire 32 "s immI $end
     $var wire 1 "w io_ctrl_jump $end
     $var wire 32 #* io_wbWriteData $end
     $var wire 1 #- io_ctrl_branch $end
     $var wire 1 #/ io_ctrl_regWrite $end
     $var wire 1 #6 s $end
     $var wire 5 #J testHarness_registerSetup_readAddress $end
     $var wire 1 #X registers $end
     $var wire 32 #[ io_rs2Data $end
     $var wire 32 #p immB $end
     $var wire 1 #w io_wbWriteEnable $end
     $var wire 1 $1 io_ctrl_memWrite $end
     $var wire 1 $5 Decoder $end
     $var wire 3 $L io_branchType $end
     $var wire 1 $f testHarness_registerSetup_setup $end
     $var wire 32 $i testHarness_testUpdates_writeData $end
     $var wire 1 $t clock $end
     $var wire 32 $| io_pcIn $end
      $scope module registers $end
       $var wire 1 * testHarness_testUpdates_writeEnable $end
       $var wire 1 , testHarness_setup_setup $end
       $var wire 32 = testHarness_testUpdates_writeData $end
       $var wire 5 A readAddress1 $end
       $var wire 1 I clock $end
       $var wire 32 Q io_readData1 $end
       $var wire 32 S registerFile $end
       $var wire 1 ` testHarness_setup_writeEnable $end
       $var wire 1 "! writeEnable $end
       $var wire 5 "+ io_readAddress1 $end
       $var wire 5 "F testHarness_testUpdates_writeAddress $end
       $var wire 1 "_ io_writeEnable $end
       $var wire 32 #0 testHarness_setup_writeData $end
       $var wire 32 #D io_writeData $end
       $var wire 5 #m testHarness_setup_readAddress $end
       $var wire 32 #u io_readData2 $end
       $var wire 5 #z writeAddress $end
       $var wire 5 $= io_writeAddress $end
       $var wire 5 $? io_readAddress2 $end
        $scope module registerFile $end
          $scope module _T_33 $end
           $var wire 1 & en $end
           $var wire 1 / pipeline_valid_0 $end
           $var wire 1 E clk $end
           $var wire 5 "N pipeline_addr_0 $end
           $var wire 1 "] mask $end
           $var wire 1 #; valid $end
           $var wire 5 #h addr $end
           $var wire 32 $4 pipeline_data_0 $end
           $var wire 32 $n data $end
          $upscope $end
          $scope module _T_41 $end
           $var wire 32 "" data $end
           $var wire 1 "K en $end
           $var wire 1 #V clk $end
           $var wire 5 $[ addr $end
          $upscope $end
          $scope module _T_38 $end
           $var wire 1 "0 clk $end
           $var wire 1 #7 en $end
           $var wire 5 #H addr $end
           $var wire 32 $S data $end
          $upscope $end
        $upscope $end
      $upscope $end
      $scope module Decoder $end
       $var wire 1 4 io_controlSignals_memWrite $end
       $var wire 1 L io_controlSignals_memRead $end
       $var wire 1 "H io_op2Select $end
       $var wire 1 #S io_controlSignals_regWrite $end
       $var wire 4 #y io_ALUop $end
       $var wire 1 #} io_op1Select $end
       $var wire 32 $# io_instruction_instruction $end
       $var wire 1 $P decodedControlSignals_1 $end
       $var wire 1 $T io_controlSignals_jump $end
       $var wire 3 ${ io_branchType $end
       $var wire 1 %$ io_controlSignals_branch $end
       $var wire 3 %& io_immType $end
      $upscope $end
    $upscope $end
    $scope module IDEXbarrier $end
     $var wire 1 " io_ctrl_out_memRead $end
     $var wire 1 8 io_op2Select_in $end
     $var wire 1 H io_ctrl_out_branch $end
     $var wire 1 N ctrlReg_jump $end
     $var wire 3 \ io_branchType_in $end
     $var wire 1 i op1SelReg $end
     $var wire 1 l io_ctrl_out_jump $end
     $var wire 1 o io_ctrl_in_regWrite $end
     $var wire 1 r io_ctrl_in_memRead $end
     $var wire 32 x io_ID_PC $end
     $var wire 1 { clock $end
     $var wire 5 ~ io_rd_in $end
     $var wire 1 ", io_op1Select_out $end
     $var wire 32 "2 rs2DataReg $end
     $var wire 32 "6 io_imm_in $end
     $var wire 1 "8 io_op1Select_in $end
     $var wire 32 "D io_rs1Data_in $end
     $var wire 32 "Y io_rs2Data_out $end
     $var wire 1 "` ctrlReg_memRead $end
     $var wire 4 "c aluopReg $end
     $var wire 1 "f io_op2Select_out $end
     $var wire 1 "o io_ctrl_in_memWrite $end
     $var wire 32 "v rs1DataReg $end
     $var wire 4 #! io_ALUop_in $end
     $var wire 1 #, reset $end
     $var wire 1 #4 ctrlReg_regWrite $end
     $var wire 5 #> rdReg $end
     $var wire 4 #? io_ALUop_out $end
     $var wire 32 #A immReg $end
     $var wire 1 #F ctrlReg_branch $end
     $var wire 1 #G io_ctrl_out_regWrite $end
     $var wire 3 #L branchTypeReg $end
     $var wire 32 #W pcReg $end
     $var wire 32 #s io_imm_out $end
     $var wire 5 #{ io_rd_out $end
     $var wire 1 $2 op2SelReg $end
     $var wire 1 $: ctrlReg_memWrite $end
     $var wire 1 $< io_ctrl_out_memWrite $end
     $var wire 3 $E io_branchType_out $end
     $var wire 32 $a io_rs1Data_out $end
     $var wire 1 $e io_ctrl_in_branch $end
     $var wire 32 $r io_EX_PC $end
     $var wire 1 $s io_ctrl_in_jump $end
     $var wire 32 $w io_rs2Data_in $end
    $upscope $end
    $scope module MEM $end
     $var wire 1 : regWrite_d $end
     $var wire 32 < alu_d $end
     $var wire 1 M io_ctrl_memRead $end
     $var wire 1 P io_branchTakenOut $end
     $var wire 5 ] io_rd $end
     $var wire 1 b DMEM $end
     $var wire 32 n testHarness_testUpdates_writeAddress $end
     $var wire 32 w io_linkPC $end
     $var wire 1 "& reset $end
     $var wire 1 "I io_ctrl_jump $end
     $var wire 32 "\ testHarness_DMEMsetup_dataAddress $end
     $var wire 32 "d io_aluResult $end
     $var wire 32 "i io_pcTargetOut $end
     $var wire 1 "r io_wbWe $end
     $var wire 32 #' io_rs2Data $end
     $var wire 5 #2 io_wbRd $end
     $var wire 1 #M jump_d $end
     $var wire 1 #O memRead_d $end
     $var wire 1 #] io_ctrl_regWrite $end
     $var wire 32 #_ io_pcTarget $end
     $var wire 1 #c testHarness_testUpdates_writeEnable $end
     $var wire 1 #q testHarness_DMEMsetup_writeEnable $end
     $var wire 32 $$ testHarness_DMEMpeek $end
     $var wire 5 $' rd_d $end
     $var wire 1 $M testHarness_DMEMsetup_setup $end
     $var wire 1 $N io_ctrl_memWrite $end
     $var wire 32 $X testHarness_testUpdates_writeData $end
     $var wire 1 $Z io_branchTaken $end
     $var wire 1 $h clock $end
     $var wire 32 $u link_d $end
     $var wire 32 $x io_wbData $end
     $var wire 32 %# testHarness_DMEMsetup_dataIn $end
      $scope module DMEM $end
       $var wire 32 - testHarness_testUpdates_writeData $end
       $var wire 1 3 _GEN_6 $end
       $var wire 12 D data__T_24_addr_pipe_0 $end
       $var wire 1 ^ testHarness_testUpdates_writeEnable $end
       $var wire 32 j testHarness_setup_dataAddress $end
       $var wire 12 k io_dataAddress $end
       $var wire 32 t testHarness_testUpdates_writeAddress $end
       $var wire 32 "3 addressSource $end
       $var wire 32 "= data $end
       $var wire 1 ## io_writeEnable $end
       $var wire 1 #d testHarness_setup_writeEnable $end
       $var wire 1 #f testHarness_setup_setup $end
       $var wire 1 $9 clock $end
       $var wire 32 $Q testHarness_setup_dataIn $end
       $var wire 32 $c io_dataIn $end
       $var wire 32 $p io_dataOut $end
        $scope module data $end
          $scope module _T_26 $end
           $var wire 1 # clk $end
           $var wire 12 "' addr $end
           $var wire 32 "4 pipeline_data_0 $end
           $var wire 1 "} pipeline_valid_0 $end
           $var wire 32 #8 data $end
           $var wire 1 $3 en $end
           $var wire 12 $B pipeline_addr_0 $end
           $var wire 1 $U valid $end
           $var wire 1 $v mask $end
          $upscope $end
          $scope module _T_24 $end
           $var wire 32 [ data $end
           $var wire 1 #E clk $end
           $var wire 1 $7 en $end
           $var wire 12 $H addr $end
          $upscope $end
        $upscope $end
      $upscope $end
    $upscope $end
    $scope module IF $end
     $var wire 32 % pcPlus4 $end
     $var wire 1 ' testHarness_IMEMsetup_setup $end
     $var wire 1 2 io_branchTaken $end
     $var wire 1 f IMEM $end
     $var wire 32 v io_PC $end
     $var wire 32 y testHarness_IMEMsetup_instruction $end
     $var wire 1 "g clock $end
     $var wire 32 "k pcNext $end
     $var wire 32 "u testHarness_PC $end
     $var wire 32 #T io_branchTarget $end
     $var wire 32 #` PCreg $end
     $var wire 1 #x reset $end
     $var wire 32 $, testHarness_IMEMsetup_address $end
     $var wire 32 $G pcForID $end
     $var wire 32 $] io_instruction_instruction $end
     $var wire 32 %' _GEN_0 $end
      $scope module IMEM $end
       $var wire 32 U testHarness_setupSignals_instruction $end
       $var wire 12 a instructions__T_20_addr_pipe_0 $end
       $var wire 1 "> clock $end
       $var wire 32 #5 testHarness_setupSignals_address $end
       $var wire 1 #@ _GEN_4 $end
       $var wire 32 #K io_instruction $end
       $var wire 1 #l testHarness_setupSignals_setup $end
       $var wire 32 $C addressSource $end
       $var wire 32 $V testHarness_requestedAddress $end
       $var wire 32 $q io_instructionAddress $end
       $var wire 32 $~ instructions $end
        $scope module instructions $end
          $scope module _T_18 $end
           $var wire 1 1 valid $end
           $var wire 1 R mask $end
           $var wire 1 "# pipeline_valid_0 $end
           $var wire 12 "O addr $end
           $var wire 1 "V clk $end
           $var wire 32 #U data $end
           $var wire 12 #Y pipeline_addr_0 $end
           $var wire 32 $^ pipeline_data_0 $end
           $var wire 1 $y en $end
          $upscope $end
          $scope module _T_20 $end
           $var wire 1 "< en $end
           $var wire 12 #( addr $end
           $var wire 1 #Q clk $end
           $var wire 32 $) data $end
          $upscope $end
        $upscope $end
      $upscope $end
    $upscope $end
    $scope module EX $end
     $var wire 1 0 cmpEq $end
     $var wire 1 @ brCond $end
     $var wire 32 F io_pcTarget $end
     $var wire 5 X io_rd $end
     $var wire 32 Z io_rs1Data $end
     $var wire 1 _ io_ctrlOut_memRead $end
     $var wire 1 c io_ctrl_memWrite $end
     $var wire 1 e cmpLtu $end
     $var wire 1 z io_op2Select $end
     $var wire 4 "( io_ALUop $end
     $var wire 32 "7 io_rs2Data $end
     $var wire 32 "E op1 $end
     $var wire 32 "M io_pc $end
     $var wire 5 "a io_rdOut $end
     $var wire 32 "e io_linkPC $end
     $var wire 1 "q io_op1Select $end
     $var wire 1 "| io_ctrl_memRead $end
     $var wire 1 #+ cmpLt $end
     $var wire 3 #. io_branchType $end
     $var wire 32 #B io_rs2Pass $end
     $var wire 1 #N io_ctrlOut_regWrite $end
     $var wire 32 #v io_aluResult $end
     $var wire 1 #| isJalrLike $end
     $var wire 1 $! io_branchTaken $end
     $var wire 1 $% alu $end
     $var wire 1 $- io_ctrl_branch $end
     $var wire 1 $@ io_ctrl_jump $end
     $var wire 1 $A io_ctrlOut_memWrite $end
     $var wire 32 $F io_imm $end
     $var wire 1 $W io_ctrl_regWrite $end
     $var wire 1 $d io_ctrlOut_jump $end
     $var wire 32 $j targetRaw $end
     $var wire 32 %" op2 $end
      $scope module alu $end
       $var wire 32 ( sub $end
       $var wire 63 ) sll $end
       $var wire 5 C shamt $end
       $var wire 32 O io_op1 $end
       $var wire 1 "$ slt $end
       $var wire 32 "* io_result $end
       $var wire 32 "n or_ $end
       $var wire 32 #& xor_ $end
       $var wire 32 #1 sra $end
       $var wire 4 #\ io_aluOp $end
       $var wire 63 #^ _GEN_0 $end
       $var wire 32 #i and_ $end
       $var wire 32 #t io_op2 $end
       $var wire 32 $" add $end
       $var wire 32 $+ srl $end
       $var wire 1 %% sltu $end
      $upscope $end
    $upscope $end
    $scope module EXMEMbarrier $end
     $var wire 1 + io_out_ctrl_memRead $end
     $var wire 1 . r_branchTaken $end
     $var wire 32 9 r_pcTarget $end
     $var wire 1 W io_in_branchTaken $end
     $var wire 1 d clock $end
     $var wire 32 p io_out_linkPC $end
     $var wire 1 u io_in_ctrl_memWrite $end
     $var wire 1 } io_out_ctrl_regWrite $end
     $var wire 32 "- io_out_pcTarget $end
     $var wire 32 "P io_in_rs2Data $end
     $var wire 32 "Q io_in_pcTarget $end
     $var wire 1 "U r_ctrl_regWrite $end
     $var wire 5 "Z r_rd $end
     $var wire 5 "[ io_in_rd $end
     $var wire 1 "h io_in_ctrl_jump $end
     $var wire 1 "j io_out_branchTaken $end
     $var wire 32 "x io_in_aluResult $end
     $var wire 1 "{ io_in_ctrl_memRead $end
     $var wire 1 #% r_ctrl_jump $end
     $var wire 1 #Z reset $end
     $var wire 1 #b io_out_ctrl_memWrite $end
     $var wire 1 $( r_ctrl_memWrite $end
     $var wire 32 $> r_rs2 $end
     $var wire 32 $D io_out_rs2Data $end
     $var wire 32 $O r_linkPC $end
     $var wire 1 $\ io_in_ctrl_regWrite $end
     $var wire 1 $` io_out_ctrl_jump $end
     $var wire 5 $b io_out_rd $end
     $var wire 32 $g r_alu $end
     $var wire 1 $m r_ctrl_memRead $end
     $var wire 32 $z io_out_aluResult $end
     $var wire 32 %! io_in_linkPC $end
    $upscope $end
    $scope module MEMWBbarrier $end
     $var wire 32 ? io_out_wbData $end
     $var wire 5 g io_in_wbRd $end
     $var wire 32 "X r_data $end
     $var wire 32 "l io_in_wbData $end
     $var wire 1 #$ reset $end
     $var wire 1 #R io_out_wbWe $end
     $var wire 1 #k r_we $end
     $var wire 5 $. r_rd $end
     $var wire 5 $6 io_out_wbRd $end
     $var wire 1 $; io_in_wbWe $end
     $var wire 1 %+ clock $end
    $upscope $end
    $scope module IFIDbarrier $end
     $var wire 32 B io_ID_instruction_instruction $end
     $var wire 32 "L io_IF_PC $end
     $var wire 32 "T io_ID_PC $end
     $var wire 1 "m clock $end
     $var wire 32 "p instrReg_instruction $end
     $var wire 32 #o io_IF_instruction_instruction $end
     $var wire 1 #~ reset $end
     $var wire 32 $I pcReg $end
    $upscope $end
    $scope module WB $end
     $var wire 32 "5 io_wbDataIn $end
     $var wire 1 "W io_wbWeOut $end
     $var wire 5 "b io_wbRdIn $end
     $var wire 5 "t io_wbRdOut $end
     $var wire 1 #9 io_wbWeIn $end
     $var wire 32 $8 io_wbDataOut $end
    $upscope $end
  $upscope $end
$upscope $end
$enddefinitions $end
$dumpvars
0o
0$%
b0000 "c
b00000 g
b00000000000000000000000000000000 $^
b00000 #m
b00000000000000000000000000000000 $I
13
0%%
b00000000000000000000000000000000 #K
0#c
b00000 #P
b00000 "Z
b00000000000000000000000000000000 "M
b00000000000000000000000000000000 $,
b00000000000000000000000000000000 %*
b000000000000000000000000000000000000000000000000000000000000000 )
0$U
b000 #.
0m
b00000000000000000000000000000000 #*
b00000000000000000000000000000000 "4
b00000000000000000000000000000000 Q
0$f
0#S
0"r
b00000000000000000000000000000000 w
0L
b000000000000 $H
b00000000000000000000000000000000 $X
0/
b00000000000000000000000000000000 "y
0"#
b00000000000000000000000000000000 #o
b00000000000000000000000000000000 "\
b00000000000000000000000000000000 "G
b00000000000000000000000000000000 "*
b000000000000 k
0z
0#O
0$0
b00000 "[
b00000000000000000000000000000000 $~
0H
b00000 ")
b00000000000000000000000000000000 $i
0@
0r
b00000000000000000000000000000000 "u
0+
b00000000000000000000000000000000 #s
b00000000000000000000000000000000 "X
b000 $L
b00000 $b
0$`
0#w
0%$
0#M
0#b
b00000000000000000000000000000000 q
0#E
b00000000000000000000000000000000 $|
b000000000000 $B
b00000000000000000000000000000000 ?
b00000000000000000000000000000000 #i
b0000 #?
1$v
0$T
0"}
0l
b00000000000000000000000000000000 $x
0#,
0"K
0"`
0:
0".
0#$
b00000000000000000000000000000000 %'
b00000000000000000000000000000000 $F
b00000000000000000000000000000000 #e
b00000000000000000000000000000000 $)
b00000000000000000000000000000000 "5
0`
b00000 #{
b00000000000000000000000000000000 $l
b00000000000000000000000000000000 #v
b00000000000000000000000000000000 #D
b00000000000000000000000000000000 "1
b00000000000000000000000000000000 $K
0$N
b000000000000 "O
b00000000000000000000000000000000 #j
0"o
b00000000000000000000000000000000 #8
b00000000000000000000000000000000 t
0$1
b00000000000000000000000000000000 $j
b00000000000000000000000000000000 B
b00000000000000000000000000000000 -
b00000000000000000000000000000000 #W
b00000000000000000000000000000000 "v
b00000000000000000000000000000000 $8
0$t
0#~
b00000000000000000000000000000000 $G
0$_
0#a
0$-
b00000000000000000000000000000000 "S
b00000000000000000000000000000000 p
b00000000000000000000000000000000 [
0#/
0"9
b00000000000000000000000000000000 "6
b00000000000000000000000000000000 S
b00000000000000000000000000000000 >
b00000 "C
b000 ${
0"_
0$!
0N
0"~
0$@
b00000000000000000000000000000000 "Q
1$7
b000 $E
b00000 $[
b00000 #z
b00000000000000000000000000000000 $V
b00000000000000000000000000000000 #u
b000 %&
0$<
b00000000000000000000000000000000 $$
b00000 #H
b00000000000000000000000000000000 #&
b00000000000000000000000000000000 "E
b00000 "F
0$A
b00000000000000000000000000000000 $z
0Y
b00000000000000000000000000000000 =
0'
b00000000000000000000000000000000 $+
b00000000000000000000000000000000 #5
b00000000000000000000000000000000 "i
b00000000000000000000000000000000 "?
b00000000000000000000000000000000 "T
b00000000000000000000000000000000 "7
b00000000000000000000000000000000 ""
b0000 #y
0"{
b0000 #\
b00000000000000000000000000000000 $a
0"I
0M
b00000 #h
0",
0$\
b00000000000000000000000000000000 $D
0#
08
b00000000000000000000000000000000 #1
b00000000000000000000000000000000 "P
b00000000000000000000000000000000 "e
b00000000000000000000000000000000 "3
0$m
b0000 "(
b00000 $=
0$;
0#Z
0$P
0#R
0#=
0"q
0}
0$3
0#k
0#N
0"m
0$/
1"]
0#9
b00000000000000000000000000000000 $S
0"&
0*
b00000000000000000000000000000000 #U
b00000000000000000000000000000000 n
0#-
b00000000000000000000000000000000 $O
1"<
b00000000000000000000000000000000 <
0&
b00000000000000000000000000000000 "p
0"|
0"g
b00000 #J
b00000000000000000000000000000000 $&
b00000000000000000000000000000000 $w
0#]
b00000000000000000000000000000000 "2
b00000000000000000000000000000000 O
b00000000000000000000000000000000 "d
0#+
b000 \
0$W
0#n
0$:
b00000000000000000000000000000000 #A
b00000000000000000000000000000000 $"
b00000 $'
b00000000000000000000000000000000 K
b00000000000000000000000000000000 6
b00000000000000000000000000000000 %"
b00000000000000000000000000000000 #`
b00000000000000000000000000000000 $g
b00000 h
0#l
b00000000000000000000000000000000 #T
0$M
b00000000000000000000000000000000 "s
0W
b00000000000000000000000000000000 $c
b00000000000000000000000000000000 ;
b00000 $6
0#}
b00000 "t
0"j
0"U
0#6
b00000000000000000000000000000000 Z
b00000 "B
0"8
b00000000000000000000000000000000 "R
b00000000000000000000000000000000 "=
b00000000000000000000000000000000 (
b000000000000 D
0$o
0$Z
0!
b00000000000000000000000000000000 %#
b00000 C
b00000000000000000000000000000000 "k
0$(
0"f
0#d
b000000000000000000000000000000000000000000000000000000000000000 #^
b00000000000000000000000000000000 V
0#G
b00000000000000000000000000000000 9
0$9
0"w
0{
b00000000000000000000000000000000 |
b00000000000000000000000000000000 $r
1#@
0f
b00000000000000000000000000000000 J
04
b00000000000000000000000000000000 #_
0I
b00000 A
b00000000000000000000000000000000 #t
b00000000000000000000000000000000 $#
b00000000000000000000000000000000 #B
b00000 #2
0#X
b000000000000 "'
b00000000000000000000000000000000 %!
b00000000000000000000000000000000 "D
0#;
b00000000000000000000000000000000 "L
0$J
0%+
0b
b00000000000000000000000000000000 $n
0"V
0#7
0E
b00000000000000000000000000000000 #p
0"$
b00000000000000000000000000000000 $Q
b00000000000000000000000000000000 "z
0#V
b00000000000000000000000000000000 $4
b00000000000000000000000000000000 #)
b00000 "b
b00000000000000000000000000000000 #[
b00000000000000000000000000000000 "@
00
0#|
0#g
0%)
0u
b00000 "A
0$Y
0#x
1R
0#F
b00000 #3
b00000 ~
b00000000000000000000000000000000 U
0T
b00000000000000000000000000000000 $}
b00000000000000000000000000000000 $u
07
0"
b00000000000000000000000000000000 "l
b00000000000000000000000000000000 $C
b000000000000 #(
0"H
b00000000000000000000000000000000 #0
b00000000000000000000000000000000 ":
0i
b00000000000000000000000000000000 j
b00000 "N
0e
0P
0#%
0"/
b00000 ]
b00000000000000000000000000000000 $q
b00000000000000000000000000000000 $*
b00000000000000000000000000000000 #I
b0000 #!
0$h
0#r
0%,
b00000 "a
b00000000000000000000000000000000 y
0c
b0000 G
0##
0"W
01
0"%
0$y
0$d
0#f
0$2
b00000 #>
0%(
0#Q
0#4
b00000000000000000000000000000000 ";
0">
0"h
0_
0"!
b00000 "+
b000000000000 a
b000000000000 #Y
0d
0$s
b00000000000000000000000000000000 $p
b000 #L
0$k
b00000000000000000000000000000000 $>
02
b00000 $.
0#C
b00000000000000000000000000000000 "J
b00000000000000000000000000000000 $]
0"0
b00000000000000000000000000000000 "-
b00000000000000000000000000000000 5
b00000 X
0$R
0#q
b00000 $?
0.
0$5
0"^
b00000000000000000000000000000000 x
b00000000000000000000000000000000 #'
b00000000000000000000000000000000 #<
0#"
b00000000000000000000000000000000 "x
b00000000000000000000000000000000 F
0s
0^
0$e
0,
0$
b00000000000000000000000000000000 %
b00000000000000000000000000000000 "Y
b00000000000000000000000000000000 v
b00000000000000000000000000000000 "n
b00000000000000000000000000000000 #:
$end
#0
1"&
b00000000000000000000000000000100 "e
1$R
b111 ${
1@
b1111 #y
1%(
1#x
b111 \
b00000000000000000000000000000100 "k
b00000000000000000000000000000100 %
b1111 #!
b00000000000000000000000000000100 %'
b111 $L
b1111 G
1#,
1#~
1#$
1#Z
b00000000000000000000000000000100 %!
10
#1
1#E
1#Q
1">
1E
1{
1#C
1#
1"g
1$h
1"m
1"0
1"V
1$t
1I
1#V
1#a
1d
1$9
1%+
#6
0#C
0"g
0I
0E
0"m
0#E
0{
0"V
0$h
0#Q
0d
0#a
0#
0#V
0">
0$t
0"0
0$9
0%+
#11
1#E
1#Q
1">
1E
1{
1#C
1#
1"g
1$h
1"m
1"0
1"V
1$t
1I
1#V
1#a
1d
1$9
1%+
#16
0#C
0"g
0I
0E
0"m
0#E
0{
0"V
0$h
0#Q
0d
0#a
0#
0#V
0">
0$t
0"0
0$9
0%+
#21
1#E
1#Q
1">
1E
1{
1#C
1#
1"g
1$h
1"m
1"0
1"V
1$t
1I
1#V
1#a
1d
1$9
1%+
#26
0#C
0"g
0I
0E
0"m
0#E
0{
0"V
0$h
0#Q
0d
0#a
0#
0#V
0">
0$t
0"0
0$9
0%+
#31
1#E
1#Q
1">
1E
1{
1#C
1#
1"g
1$h
1"m
1"0
1"V
1$t
1I
1#V
1#a
1d
1$9
1%+
#36
0#C
0"g
0I
0E
0"m
0#E
0{
0"V
0$h
0#Q
0d
0#a
0#
0#V
0">
0$t
0"0
0$9
0%+
#41
1#E
1#Q
1">
1E
1{
1#C
1#
1"g
1$h
1"m
1"0
1"V
1$t
1I
1#V
1#a
1d
1$9
1%+
#46
b00000000000000000000000000010011 #o
1,
0#Z
0#C
1#"
0"g
0I
0E
0%(
0#E
0{
0"V
0d
1#n
0#
b11111110000000010000000100010011 >
0#,
11
0#V
1'
0$9
b11111110000000010000000100010011 U
0#~
0#x
1$f
1#l
0"m
0$R
b11111110000000010000000100010011 $&
0#$
0$h
0#Q
1$_
0#a
b11111110000000010000000100010011 y
b11111110000000010000000100010011 #U
b00000000000000000000000000000000 %'
1#=
b00000000000000000000000000010011 $]
1$M
1$y
0"&
0">
0$t
0"0
0%+
1#f
#51
1#E
1o
1">
1{
b00000000000000000000000000010011 "p
b111 $E
1#C
1$h
b11111110000000010000000100010011 $)
1"0
1#S
b1111 #\
b11111110000000010000000100010011 $^
1"V
b00000000000000000000000000010011 B
1I
b1111 #?
1#V
1#a
18
1$9
b111 #L
b0000 G
b00000000000000000000000000000100 $O
1%+
1"#
b1111 "c
1#Q
1E
b00000000000000000000000000000100 w
b111 #.
1#
b00000000000000000000000000000100 p
1"g
0@
1"m
b11111110000000010000000100010011 #K
b0000 #!
b1111 "(
b00000000000000000000000000010011 "1
1"H
1$
1#/
1$t
b0000 #y
1d
b00000000000000000000000000010011 $#
#56
b00000000000000000000000000010011 $&
b00000000000000000000000000000100 $C
0#C
0"g
0I
0E
0#E
0{
0"V
b00000000000000000000000000000100 5
0d
0#
b00000000000000000000000000000100 V
0#V
b00000000000000000000000000000100 #5
b000000000100 "O
0$9
b00000000000000000000000000010011 y
b00000000000000000000000000000100 $,
b00000000000000000000000000010011 U
0"m
b00000000000000000000000000010011 >
b00000000000000000000000000010011 #U
0$h
0#Q
0#a
0">
0$t
0"0
0%+
#61
1#E
b0000 #?
1">
1{
1#C
b0000 #\
1"f
b0000 "(
1$h
1$W
1"0
1#4
b00000000000000000000000000010011 #K
1"V
b0000 "c
1I
b00000000000000000000000000000100 $u
1#V
1#a
1$9
1%+
b000000000100 a
1#Q
1E
1#N
1#
1"g
1"m
b00000000000000000000000000010011 $)
b000000000100 #(
b00000000000000000000000000010011 $^
1#G
1$t
1$\
1$2
1z
1d
b000000000100 #Y
#66
0#C
0"g
0I
0E
b000000001000 "O
0"m
0#E
0{
0"V
0$h
0#Q
0d
0#a
0#
b00000000000000000000000000001000 #5
b00000000000000000000000000001000 $C
b00000000000000000000000000001000 V
0#V
b00000000000000000000000000001000 $,
0">
0$t
0"0
0$9
0%+
b00000000000000000000000000001000 5
#71
1#E
1}
1#Q
1">
1E
1{
1#C
1#]
1#
1"g
1$h
1"m
1"0
b000000001000 #(
b000000001000 #Y
b000000001000 a
1"V
1$t
1I
1#V
1#a
1"U
1d
1$9
1%+
#76
b00000000000000000000000000001100 #5
0#C
b00000000000000000000000000001100 V
0"g
0I
0E
0"m
b000000001100 "O
0#E
0{
0"V
0$h
0#Q
0d
0#a
b00000000000000000000000000001100 5
b00000000000000000000000000001100 $C
0#
b00000000000000000000000000001100 $,
0#V
0">
0$t
0"0
0$9
0%+
#81
1#E
1#Q
1">
1E
1{
1#C
b000000001100 #Y
1#
1"g
1$h
1"m
1"0
1$;
b000000001100 a
1"V
b000000001100 #(
1$t
1I
1#V
1#a
1d
1$9
1:
1"r
1%+
